{
    "name": "Player",
    "maps": [
        {
            "name": "Player",
            "id": "2b02eb81-26d9-487f-8a5a-f126fccacc1d",
            "actions": [
                {
                    "name": "Movement",
                    "type": "Value",
                    "id": "88158007-b155-49ba-a36b-a0d35de31f0a",
                    "expectedControlType": "Vector2",
                    "processors": "",
                    "interactions": "",
                    "initialStateCheck": true
                },
                {
                    "name": "LookMouse",
                    "type": "Value",
                    "id": "f565e58e-d4be-4723-88a9-e8f693d28b31",
                    "expectedControlType": "Vector2",
                    "processors": "",
                    "interactions": "",
                    "initialStateCheck": true
                },
                {
                    "name": "Jump",
                    "type": "Button",
                    "id": "1cf6a55f-a0ec-44c1-9217-9c6acc7ae9f5",
                    "expectedControlType": "Button",
                    "processors": "",
                    "interactions": "",
                    "initialStateCheck": false
                },
                {
                    "name": "Shoot",
                    "type": "Button",
                    "id": "e4c645d7-522b-4700-8ba9-c9ab2246ca68",
                    "expectedControlType": "Button",
                    "processors": "",
                    "interactions": "",
                    "initialStateCheck": false
                },
                {
                    "name": "Interact",
                    "type": "Button",
                    "id": "dd0eb8e5-cf33-4a34-bedc-33c9f3f1ab9b",
                    "expectedControlType": "Button",
                    "processors": "",
                    "interactions": "",
                    "initialStateCheck": false
                }
            ],
            "bindings": [
                {
                    "name": "Keyboard",
                    "id": "35110bd2-7765-49af-91e0-d2a1f11b263c",
                    "path": "2DVector",
                    "interactions": "",
                    "processors": "",
                    "groups": "",
                    "action": "Movement",
                    "isComposite": true,
                    "isPartOfComposite": false
                },
                {
                    "name": "left",
                    "id": "bda7cfbe-33e0-4766-a0cc-d9a43c6ae077",
                    "path": "<Keyboard>/a",
                    "interactions": "",
                    "processors": "",
                    "groups": "",
                    "action": "Movement",
                    "isComposite": false,
                    "isPartOfComposite": true
                },
                {
                    "name": "right",
                    "id": "cf047e4c-c2f1-4936-ac45-fe5836e25530",
                    "path": "<Keyboard>/d",
                    "interactions": "",
                    "processors": "",
                    "groups": "",
                    "action": "Movement",
                    "isComposite": false,
                    "isPartOfComposite": true
                },
                {
                    "name": "Joystick",
                    "id": "431583e1-c118-4c7e-bbe2-85a0ac5dd9f0",
                    "path": "2DVector",
                    "interactions": "",
                    "processors": "",
                    "groups": "",
                    "action": "Movement",
                    "isComposite": true,
                    "isPartOfComposite": false
                },
                {
                    "name": "left",
                    "id": "6042e37f-fb99-48d8-a2db-1c8f6323b53a",
                    "path": "<Gamepad>/leftStick/left",
                    "interactions": "",
                    "processors": "",
                    "groups": "",
                    "action": "Movement",
                    "isComposite": false,
                    "isPartOfComposite": true
                },
                {
                    "name": "right",
                    "id": "ed76710f-8247-4654-8846-6d69e8764f4a",
                    "path": "<Gamepad>/leftStick/right",
                    "interactions": "",
                    "processors": "",
                    "groups": "",
                    "action": "Movement",
                    "isComposite": false,
                    "isPartOfComposite": true
                },
                {
                    "name": "",
                    "id": "4dd319ec-7fc4-44f5-80c3-a77f8ba1ee45",
                    "path": "<Keyboard>/space",
                    "interactions": "",
                    "processors": "",
                    "groups": "",
                    "action": "Jump",
                    "isComposite": false,
                    "isPartOfComposite": false
                },
                {
                    "name": "",
                    "id": "ba985efa-511f-486f-ad16-b30b72bfd4e6",
                    "path": "<Keyboard>/w",
                    "interactions": "",
                    "processors": "",
                    "groups": "",
                    "action": "Jump",
                    "isComposite": false,
                    "isPartOfComposite": false
                },
                {
                    "name": "",
                    "id": "24750709-19ae-4dbb-b9d0-ff98a9b03ada",
                    "path": "<Mouse>/leftButton",
                    "interactions": "",
                    "processors": "",
                    "groups": "",
                    "action": "Shoot",
                    "isComposite": false,
                    "isPartOfComposite": false
                },
                {
                    "name": "",
                    "id": "3503438a-fde1-4c93-a817-8d2267dd6f76",
                    "path": "<Mouse>/position",
                    "interactions": "",
                    "processors": "",
                    "groups": "",
                    "action": "LookMouse",
                    "isComposite": false,
                    "isPartOfComposite": false
                },
                {
                    "name": "",
                    "id": "7e2c006b-4d16-433f-a09b-5293be73b7ff",
                    "path": "<Keyboard>/e",
                    "interactions": "",
                    "processors": "",
                    "groups": "",
                    "action": "Interact",
                    "isComposite": false,
                    "isPartOfComposite": false
                }
            ]
        }
    ],
    "controlSchemes": []
}